mc20_13TeV.700587.Sh_2212_lllljj.deriv.DAOD_PHYS.e8433_s3681_r13167_p6026 
mc20_13TeV.700588.Sh_2212_lllvjj.deriv.DAOD_PHYS.e8433_s3681_r13167_p6026 
mc20_13TeV.700590.Sh_2212_llvvjj_ss.deriv.DAOD_PHYS.e8433_s3681_r13167_p6026 
mc20_13TeV.700600.Sh_2212_llll.deriv.DAOD_PHYS.e8433_s3681_r13167_p6026
mc20_13TeV.700601.Sh_2212_lllv.deriv.DAOD_PHYS.e8433_s3681_r13167_p6026
mc20_13TeV.700603.Sh_2212_llvv_ss.deriv.DAOD_PHYS.e8433_s3681_r13167_p6026 
mc20_13TeV.700587.Sh_2212_lllljj.deriv.DAOD_PHYS.e8433_s3681_r13144_p6026
mc20_13TeV.700588.Sh_2212_lllvjj.deriv.DAOD_PHYS.e8433_s3681_r13144_p6026
mc20_13TeV.700590.Sh_2212_llvvjj_ss.deriv.DAOD_PHYS.e8433_s3681_r13144_p6026
mc20_13TeV.700600.Sh_2212_llll.deriv.DAOD_PHYS.e8433_s3681_r13144_p6026
mc20_13TeV.700601.Sh_2212_lllv.deriv.DAOD_PHYS.e8433_s3681_r13144_p6026
mc20_13TeV.700603.Sh_2212_llvv_ss.deriv.DAOD_PHYS.e8433_s3681_r13144_p6026
mc20_13TeV.700587.Sh_2212_lllljj.deriv.DAOD_PHYS.e8433_s3681_r13145_p6026
mc20_13TeV.700588.Sh_2212_lllvjj.deriv.DAOD_PHYS.e8433_s3681_r13145_p6026
mc20_13TeV.700590.Sh_2212_llvvjj_ss.deriv.DAOD_PHYS.e8433_s3681_r13145_p6026
mc20_13TeV.700600.Sh_2212_llll.deriv.DAOD_PHYS.e8433_s3681_r13145_p6026
mc20_13TeV.700601.Sh_2212_lllv.deriv.DAOD_PHYS.e8433_s3681_r13145_p6026
mc20_13TeV.700603.Sh_2212_llvv_ss.deriv.DAOD_PHYS.e8433_s3681_r13145_p6026