mc20_13TeV.410470.PhPy8EG_A14_ttbar_hdamp258p75_nonallhad.deriv.DAOD_PHYSLITE.e6337_s3681_r13144_p6026
mc20_13TeV.410470.PhPy8EG_A14_ttbar_hdamp258p75_nonallhad.deriv.DAOD_PHYSLITE.e6337_s3681_r13145_p6026
mc20_13TeV.410470.PhPy8EG_A14_ttbar_hdamp258p75_nonallhad.deriv.DAOD_PHYSLITE.e6337_s3681_r13167_p6026
mc20_13TeV.410471.PhPy8EG_A14_ttbar_hdamp258p75_allhad.deriv.DAOD_PHYSLITE.e6337_s3681_r13144_p6026
mc20_13TeV.410471.PhPy8EG_A14_ttbar_hdamp258p75_allhad.deriv.DAOD_PHYSLITE.e6337_s3681_r13145_p6026
mc20_13TeV.410471.PhPy8EG_A14_ttbar_hdamp258p75_allhad.deriv.DAOD_PHYSLITE.e6337_s3681_r13167_p6026
mc20_13TeV.410472.PhPy8EG_A14_ttbar_hdamp258p75_dil.deriv.DAOD_PHYSLITE.e6348_s3681_r13144_p6026
mc20_13TeV.410472.PhPy8EG_A14_ttbar_hdamp258p75_dil.deriv.DAOD_PHYSLITE.e6348_s3681_r13145_p6026
mc20_13TeV.410472.PhPy8EG_A14_ttbar_hdamp258p75_dil.deriv.DAOD_PHYSLITE.e6348_s3681_r13167_p6026
mc20_13TeV.410644.PowhegPythia8EvtGen_A14_singletop_schan_lept_top.deriv.DAOD_PHYSLITE.e6527_s3681_r13144_p6026
mc20_13TeV.410644.PowhegPythia8EvtGen_A14_singletop_schan_lept_top.deriv.DAOD_PHYSLITE.e6527_s3681_r13145_p6026
mc20_13TeV.410644.PowhegPythia8EvtGen_A14_singletop_schan_lept_top.deriv.DAOD_PHYSLITE.e6527_s3681_r13167_p6026
mc20_13TeV.410645.PowhegPythia8EvtGen_A14_singletop_schan_lept_antitop.deriv.DAOD_PHYSLITE.e6527_s3681_r13144_p6026
mc20_13TeV.410645.PowhegPythia8EvtGen_A14_singletop_schan_lept_antitop.deriv.DAOD_PHYSLITE.e6527_s3681_r13145_p6026
mc20_13TeV.410645.PowhegPythia8EvtGen_A14_singletop_schan_lept_antitop.deriv.DAOD_PHYSLITE.e6527_s3681_r13167_p6026
mc20_13TeV.410646.PowhegPythia8EvtGen_A14_Wt_DR_inclusive_top.deriv.DAOD_PHYSLITE.e6552_s3681_r13144_p6026
mc20_13TeV.410646.PowhegPythia8EvtGen_A14_Wt_DR_inclusive_top.deriv.DAOD_PHYSLITE.e6552_s3681_r13145_p6026
mc20_13TeV.410646.PowhegPythia8EvtGen_A14_Wt_DR_inclusive_top.deriv.DAOD_PHYSLITE.e6552_s3681_r13167_p6026
mc20_13TeV.410648.PowhegPythia8EvtGen_A14_Wt_DR_dilepton_top.deriv.DAOD_PHYSLITE.e6615_s3681_r13144_p6026
mc20_13TeV.410648.PowhegPythia8EvtGen_A14_Wt_DR_dilepton_top.deriv.DAOD_PHYSLITE.e6615_s3681_r13145_p6026
mc20_13TeV.410648.PowhegPythia8EvtGen_A14_Wt_DR_dilepton_top.deriv.DAOD_PHYSLITE.e6615_s3681_r13167_p6026
mc20_13TeV.410658.PhPy8EG_A14_tchan_BW50_lept_top.deriv.DAOD_PHYSLITE.e6671_s3681_r13144_p6026
mc20_13TeV.410658.PhPy8EG_A14_tchan_BW50_lept_top.deriv.DAOD_PHYSLITE.e6671_s3681_r13145_p6026
mc20_13TeV.410658.PhPy8EG_A14_tchan_BW50_lept_top.deriv.DAOD_PHYSLITE.e6671_s3681_r13167_p6026
mc20_13TeV.410659.PhPy8EG_A14_tchan_BW50_lept_antitop.deriv.DAOD_PHYSLITE.e6671_s3681_r13144_p6026
mc20_13TeV.410659.PhPy8EG_A14_tchan_BW50_lept_antitop.deriv.DAOD_PHYSLITE.e6671_s3681_r13145_p6026
mc20_13TeV.410659.PhPy8EG_A14_tchan_BW50_lept_antitop.deriv.DAOD_PHYSLITE.e6671_s3681_r13167_p6026
mc20_13TeV.601352.PhPy8EG_tW_dyn_DR_incl_antitop.deriv.DAOD_PHYSLITE.e8547_s4231_r13144_p6026
mc20_13TeV.601352.PhPy8EG_tW_dyn_DR_incl_antitop.deriv.DAOD_PHYSLITE.e8547_s4231_r13167_p6026
mc20_13TeV.601352.PhPy8EG_tW_dyn_DR_incl_antitop.deriv.DAOD_PHYSLITE.e8547_s4231_r13145_p5855
mc20_13TeV.601353.PhPy8EG_tW_dyn_DR_dil_antitop.deriv.DAOD_PHYSLITE.e8547_s4231_r13144_p6026
mc20_13TeV.601353.PhPy8EG_tW_dyn_DR_dil_antitop.deriv.DAOD_PHYSLITE.e8547_s4231_r13145_p6026
mc20_13TeV.601353.PhPy8EG_tW_dyn_DR_dil_antitop.deriv.DAOD_PHYSLITE.e8547_s4231_r13167_p6026
mc20_13TeV.601354.PhPy8EG_tW_dyn_DR_dil_top.deriv.DAOD_PHYSLITE.e8547_s4231_r13144_p6026
mc20_13TeV.601354.PhPy8EG_tW_dyn_DR_dil_top.deriv.DAOD_PHYSLITE.e8547_s4231_r13145_p6026
mc20_13TeV.601354.PhPy8EG_tW_dyn_DR_dil_top.deriv.DAOD_PHYSLITE.e8547_s4231_r13167_p6026
mc20_13TeV.601355.PhPy8EG_tW_dyn_DR_incl_top.deriv.DAOD_PHYSLITE.e8547_s4231_r13144_p6026
mc20_13TeV.601355.PhPy8EG_tW_dyn_DR_incl_top.deriv.DAOD_PHYSLITE.e8547_s4231_r13145_p6026
mc20_13TeV.601355.PhPy8EG_tW_dyn_DR_incl_top.deriv.DAOD_PHYSLITE.e8547_s4231_r13167_p6026
mc20_13TeV.700168.Sh_2210_ttW.deriv.DAOD_PHYSLITE.e8273_s3797_r13144_p6026
mc20_13TeV.700168.Sh_2210_ttW.deriv.DAOD_PHYSLITE.e8273_s3797_r13145_p6026
mc20_13TeV.700168.Sh_2210_ttW.deriv.DAOD_PHYSLITE.e8273_s3797_r13167_p6026
#ttH
mc20_13TeV.346344.PhPy8EG_A14NNPDF23_NNPDF30ME_ttH125_semilep.deriv.DAOD_PHYSLITE.e7148_s3681_r13167_p6026             
mc20_13TeV.346345.PhPy8EG_A14NNPDF23_NNPDF30ME_ttH125_dilep.deriv.DAOD_PHYSLITE.e7148_s3681_r13167_p6026
mc20_13TeV.346344.PhPy8EG_A14NNPDF23_NNPDF30ME_ttH125_semilep.deriv.DAOD_PHYSLITE.e7148_s3681_r13144_p6026
mc20_13TeV.346345.PhPy8EG_A14NNPDF23_NNPDF30ME_ttH125_dilep.deriv.DAOD_PHYSLITE.e7148_s3681_r13144_p6026 
mc20_13TeV.346344.PhPy8EG_A14NNPDF23_NNPDF30ME_ttH125_semilep.deriv.DAOD_PHYSLITE.e7148_s3681_r13145_p6026
mc20_13TeV.346345.PhPy8EG_A14NNPDF23_NNPDF30ME_ttH125_dilep.deriv.DAOD_PHYSLITE.e7148_s3681_r13145_p6026
#EW WZjj
mc20_13TeV.700587.Sh_2212_lllljj.deriv.DAOD_PHYSLITE.e8433_s3681_r13167_p6026                                          
mc20_13TeV.700588.Sh_2212_lllvjj.deriv.DAOD_PHYSLITE.e8433_s3681_r13167_p6026                                          
mc20_13TeV.700590.Sh_2212_llvvjj_ss.deriv.DAOD_PHYSLITE.e8433_s3681_r13167_p6026                                       
mc20_13TeV.700600.Sh_2212_llll.deriv.DAOD_PHYSLITE.e8433_s3681_r13167_p6026                                            
mc20_13TeV.700601.Sh_2212_lllv.deriv.DAOD_PHYSLITE.e8433_s3681_r13167_p6026                                            
mc20_13TeV.700603.Sh_2212_llvv_ss.deriv.DAOD_PHYSLITE.e8433_s3681_r13167_p6026
mc20_13TeV.700587.Sh_2212_lllljj.deriv.DAOD_PHYSLITE.e8433_s3681_r13144_p6026
mc20_13TeV.700588.Sh_2212_lllvjj.deriv.DAOD_PHYSLITE.e8433_s3681_r13144_p6026
mc20_13TeV.700590.Sh_2212_llvvjj_ss.deriv.DAOD_PHYSLITE.e8433_s3681_r13144_p6026
mc20_13TeV.700600.Sh_2212_llll.deriv.DAOD_PHYSLITE.e8433_s3681_r13144_p6026
mc20_13TeV.700601.Sh_2212_lllv.deriv.DAOD_PHYSLITE.e8433_s3681_r13144_p6026
mc20_13TeV.700603.Sh_2212_llvv_ss.deriv.DAOD_PHYSLITE.e8433_s3681_r13144_p6026
mc20_13TeV.700587.Sh_2212_lllljj.deriv.DAOD_PHYSLITE.e8433_s3681_r13145_p6026
mc20_13TeV.700588.Sh_2212_lllvjj.deriv.DAOD_PHYSLITE.e8433_s3681_r13145_p6026
mc20_13TeV.700590.Sh_2212_llvvjj_ss.deriv.DAOD_PHYSLITE.e8433_s3681_r13145_p6026
mc20_13TeV.700600.Sh_2212_llll.deriv.DAOD_PHYSLITE.e8433_s3681_r13145_p6026
mc20_13TeV.700601.Sh_2212_lllv.deriv.DAOD_PHYSLITE.e8433_s3681_r13145_p6026
mc20_13TeV.700603.Sh_2212_llvv_ss.deriv.DAOD_PHYSLITE.e8433_s3681_r13145_p6026
